{
    "KPlugin": {
        "Description": "Launches KSysguard on Ctrl + Escape",
        "Description[ar]": "يُطلِق مرقاب نظام.ك عند الضغط على Ctrl+Escape",
        "Description[az]": "Ctrl + Escape-lə KSysguard-ı başladır",
        "Description[be]": "Запуск KSysguard з дапамогай Ctrl + Escape",
        "Description[bg]": "Стартира KSysguard при натискане на  Ctrl + Escape",
        "Description[ca@valencia]": "Inicia KSysGuard amb Ctrl + Esc",
        "Description[ca]": "Llança el KSysguard amb Ctrl + Esc",
        "Description[cs]": "Při Ctrl+Esc spustí KSysguard",
        "Description[da]": "Starter KSysguard med Ctrl + Escape",
        "Description[de]": "Startet KSysguard mit Strg+Esc",
        "Description[en_GB]": "Launches KSysguard on Ctrl + Escape",
        "Description[es]": "Lanza KSysguard al pulsar Ctrl + Escape",
        "Description[et]": "KSysguardi käivitamine Ctrl+Escape vajutamisel",
        "Description[eu]": "KSysguard jaurtitzen du Ktrl + Ihes sakatzean",
        "Description[fi]": "Käynnistää Ctrl+Esc-painalluksella KSysGuardin",
        "Description[fr]": "Lancer KSysguard avec « CTRL » + « Échap »",
        "Description[hu]": "KSysguard futtatása a Ctrl+Esc megnyomásakor",
        "Description[ia]": "Lancea KSysguard sur Ctrl + Escape",
        "Description[id]": "Luncurkan KSysguard dengan Ctrl + Escape",
        "Description[is]": "Ræsir KSysguard-kerfisvörðinn með Ctrl + Escape",
        "Description[it]": "Avvia KSysguard con Ctrl + Esc",
        "Description[ja]": "KSysguard を Ctrl + Escape で起動します",
        "Description[ka]": "Ctrl + Escape-ით KSysguard-ის გაშვება",
        "Description[ko]": "Ctrl+Esc 키를 눌렀을 때 KSysguard 실행",
        "Description[lt]": "Paleidžia KSysguard, paspaudus Vald + Gr (Ctrl + Esc)",
        "Description[nl]": "Start KSysguard bij Ctrl + Escape",
        "Description[nn]": "Startar KSysGuard ved «Ctrl + Escape»",
        "Description[pa]": "Ctrl + Escape ਨਾਲ ਕੇਸਿਸ-ਗਾਰਡ ਚੱਲਦਾ ਹੈ",
        "Description[pl]": "Uruchamia Monitor Systemowy na Ctrl + Escape",
        "Description[pt]": "Invoca o KSysguard com o Ctrl + Escape",
        "Description[pt_BR]": "Carrega o KSysguard com o Ctrl + Escape",
        "Description[ro]": "Lansează KSysguard cu Ctrl + Escape",
        "Description[ru]": "Запускает системный монитор при нажатии Ctrl+Esc",
        "Description[sk]": "Spustí KSysGuard s Ctrl + Escape",
        "Description[sl]": "Zažene KSysguard ob pritisku Ctrl + Escape",
        "Description[sv]": "Startar KDE:s systemövervakare vid Ctrl+Esc",
        "Description[ta]": "Ctrl + Escape அழுத்தப்படும்போது கேஸிஸ்கார்டை இயக்கும்",
        "Description[tr]": "Ctrl + Escape ile KSysguard'ı başlatır",
        "Description[uk]": "Запускає KSysguard у відповідь на натискання Ctrl + Esc",
        "Description[vi]": "Khởi chạy KSysguard khi ấn Ctrl + Escape",
        "Description[x-test]": "xxLaunches KSysguard on Ctrl + Escapexx",
        "Description[zh_CN]": "Ctrl + Esc 启动系统守护程序",
        "Description[zh_TW]": "使用 Ctrl + Escape 啟動 KSysguard",
        "Icon": "preferences-system-power-management",
        "Name": "KSysguard",
        "Name[ar]": "مرقاب نظام.ك",
        "Name[az]": "KSysguard",
        "Name[be]": "KSysguard",
        "Name[bg]": "KSysguard",
        "Name[bs]": "KSysguard",
        "Name[ca@valencia]": "KSysGuard",
        "Name[ca]": "KSysguard",
        "Name[cs]": "KSysGuard",
        "Name[da]": "KSysguard",
        "Name[de]": "KSysguard",
        "Name[el]": "KSysGuard",
        "Name[en_GB]": "KSysguard",
        "Name[es]": "KSysguard",
        "Name[et]": "KSysguard",
        "Name[eu]": "KSysguard",
        "Name[fi]": "KSysguard",
        "Name[fr]": "KSysguard",
        "Name[gl]": "KSysguard",
        "Name[he]": "מנהל תהליכים",
        "Name[hi]": "के-सिसगार्ड",
        "Name[hu]": "KSysGuard",
        "Name[ia]": "KSysGuard",
        "Name[id]": "KSysguard",
        "Name[is]": "KDE kerfisvörður",
        "Name[it]": "Monitor di sistema",
        "Name[ja]": "KSysguard",
        "Name[ka]": "KSysguard",
        "Name[ko]": "KSysguard",
        "Name[lt]": "KSysguard",
        "Name[ml]": "കെസിസ്ഗാർഡ്",
        "Name[nb]": "KSysguard",
        "Name[nds]": "KSysguard",
        "Name[nl]": "KSysguard",
        "Name[nn]": "KSysguard",
        "Name[pa]": "ਕੇ-ਸਿਸਗਾਰਡ",
        "Name[pl]": "Monitor Systemowy",
        "Name[pt]": "KSysguard",
        "Name[pt_BR]": "KSysguard",
        "Name[ro]": "KSysguard",
        "Name[ru]": "Запуск системного монитора",
        "Name[sk]": "KSysguard",
        "Name[sl]": "KSysguard",
        "Name[sr@ijekavian]": "К‑систембран",
        "Name[sr@ijekavianlatin]": "K‑sistembran",
        "Name[sr@latin]": "K‑sistembran",
        "Name[sr]": "К‑систембран",
        "Name[sv]": "KDE:s systemövervakare",
        "Name[ta]": "கேஸிஸ்கார்ட்",
        "Name[tr]": "KSysGuard",
        "Name[uk]": "KSysguard",
        "Name[vi]": "KSysguard",
        "Name[x-test]": "xxKSysguardxx",
        "Name[zh_CN]": "KDE 系统守护程序",
        "Name[zh_TW]": "KSysguard"
    },
    "X-KDE-Kded-autoload": true,
    "X-KDE-Kded-load-on-demand": false,
    "X-KDE-Kded-phase": 1
}
