{
    "KPlugin": {
        "Authors": [
            {
                "Email": "bhush94@gmail.com",
                "Name": "Bhushan Shah",
                "Name[ar]": "Bhushan Shah",
                "Name[az]": "Bhushan Shah",
                "Name[be]": "Bhushan Shah",
                "Name[bg]": "Bhushan Shah",
                "Name[ca@valencia]": "Bhushan Shah",
                "Name[ca]": "Bhushan Shah",
                "Name[cs]": "Bhushan Shah",
                "Name[da]": "Bhushan Shah",
                "Name[de]": "Bhushan Shah",
                "Name[en_GB]": "Bhushan Shah",
                "Name[es]": "Bhushan Shah",
                "Name[et]": "Bhushan Shah",
                "Name[eu]": "Bhushan Shah",
                "Name[fi]": "Bhushan Shah",
                "Name[fr]": "Bhushan Shah",
                "Name[hu]": "Bhushan Shah",
                "Name[ia]": "Bhushan Shah",
                "Name[id]": "Bhushan Shah",
                "Name[is]": "Bhushan Shah",
                "Name[it]": "Bhushan Shah",
                "Name[ja]": "Bhushan Shah",
                "Name[ka]": "Bhushan Shah",
                "Name[ko]": "Bhushan Shah",
                "Name[lt]": "Bhushan Shah",
                "Name[nl]": "Bhushan Shah",
                "Name[nn]": "Bhushan Shah",
                "Name[pa]": "ਭੂਸ਼ਨ ਸ਼ਾਹ",
                "Name[pl]": "Bhushan Shah",
                "Name[pt]": "Bhushan Shah",
                "Name[pt_BR]": "Bhushan Shah",
                "Name[ro]": "Bhushan Shah",
                "Name[ru]": "Bhushan Shah",
                "Name[sk]": "Bhushan Shah",
                "Name[sl]": "Bhushan Shah",
                "Name[sv]": "Bhushan Shah",
                "Name[ta]": "புஷன் ஷா",
                "Name[tr]": "Buşan Şah",
                "Name[uk]": "Bhushan Shah",
                "Name[vi]": "Bhushan Shah",
                "Name[x-test]": "xxBhushan Shahxx",
                "Name[zh_CN]": "Bhushan Shah"
            }
        ],
        "BugReportUrl": "https://bugs.kde.org/enter_bug.cgi?product=plasmashell&component=Activity%20Switcher",
        "Category": "Windows and Tasks",
        "Description": "Tab bar to switch activities",
        "Description[ar]": "شريط ألسنة لتبديل الأنشطة",
        "Description[az]": "İş otaqlarına keçid üçün vərəq zolağı",
        "Description[be]": "Панэль укладак для пераключэння пакояў",
        "Description[bg]": "Лента за превключване на дейности",
        "Description[ca@valencia]": "Barra de pestanyes per a canviar d'activitat",
        "Description[ca]": "Barra de pestanyes per a canviar d'activitat",
        "Description[cs]": "Panel pro přepínání aktivit",
        "Description[da]": "Fanebladslinje til at skifte mellem aktiviteter",
        "Description[de]": "Leiste zum Wechseln von Aktivitäten",
        "Description[en_GB]": "Tab bar to switch activities",
        "Description[eo]": "Langetobreto por ŝalti aktivecojn",
        "Description[es]": "Barra de pestañas para cambiar actividades",
        "Description[et]": "Kaardiriba tegevuse lülitamiseks",
        "Description[eu]": "Jardueraz aldatzeko fitxa-barra",
        "Description[fi]": "Välilehtipalkki aktiviteettivaihtoon",
        "Description[fr]": "Barre d'onglets permettant le basculement entre activités",
        "Description[hu]": "Aktivitások közötti váltásra szolgáló lapozóelem",
        "Description[ia]": "Barra de scheda pro commutar activitates",
        "Description[id]": "Bilah tab untuk beralih aktivitas",
        "Description[is]": "Flipastika til að skipta um athafnasvæði",
        "Description[it]": "Barra a schede per cambiare attività",
        "Description[ja]": "アクティビティを切り替えるタブバー",
        "Description[ka]": "ქმედებების გადასართავი ჩანართი",
        "Description[ko]": "활동 사이를 전환할 수 있는 탭 표시줄",
        "Description[lt]": "Kortelių juosta, skirta perjungti veiklas",
        "Description[nl]": "Tabbladbalk om van activiteit te wisselen",
        "Description[nn]": "Fanelinje for å byta mellom aktivitetar",
        "Description[pa]": "ਸਰਗਰਮੀਆਂ ਨੂੰ ਬਦਲਣ ਲਈ ਟੈਬ ਪੱਟੀ",
        "Description[pl]": "Pasek kart do przełączania aktywności",
        "Description[pt]": "Barra de páginas para mudar de actividades",
        "Description[pt_BR]": "Barra de abas para alternar atividades",
        "Description[ro]": "Bară cu file pentru comutarea activităților",
        "Description[ru]": "Переключение комнат",
        "Description[sk]": "Panel na prepínanie aktivít",
        "Description[sl]": "Vrstica zavihkov za preklapljanje med dejavnostmi",
        "Description[sv]": "Flikrad för att byta aktiviteter",
        "Description[ta]": "செயல்பாடுகளுக்கிடையே தாவ உதவும் கீற்றுப் பட்டை",
        "Description[tr]": "Etkinlikleri değiştirmek için sekme çubuğu",
        "Description[uk]": "Панель з вкладками для перемикання дій",
        "Description[vi]": "Thanh thẻ để chuyển Hoạt động",
        "Description[x-test]": "xxTab bar to switch activitiesxx",
        "Description[zh_CN]": "切换活动的标签栏",
        "Description[zh_TW]": "切換活動的分頁列",
        "EnabledByDefault": true,
        "FormFactors": [
            "desktop"
        ],
        "Icon": "tab-new",
        "Id": "org.kde.plasma.activitybar",
        "License": "GPL-2.0+",
        "Name": "Activity Bar",
        "Name[ar]": "شريط أنشطة",
        "Name[az]": "İş otağı paneli",
        "Name[be@latin]": "Panel zaniatkaŭ",
        "Name[be]": "Панэль пакояў",
        "Name[bg]": "Лента на дейности",
        "Name[bs]": "Traka aktivnosti",
        "Name[ca@valencia]": "Barra d'activitat",
        "Name[ca]": "Barra d'activitat",
        "Name[cs]": "Pruh aktivit",
        "Name[da]": "Aktivitetslinje",
        "Name[de]": "Aktivitätsleiste",
        "Name[el]": "Γραμμή δραστηριότητας",
        "Name[en_GB]": "Activity Bar",
        "Name[eo]": "Aktiveca Nivelo",
        "Name[es]": "Barra de actividad",
        "Name[et]": "Tegevusriba",
        "Name[eu]": "Jarduera-barra",
        "Name[fi]": "Aktiviteettipalkki",
        "Name[fr]": "Barre d'activités",
        "Name[fy]": "Aktiviteitsbalke",
        "Name[ga]": "Barra Gníomhaíochta",
        "Name[gl]": "Barra de actividades",
        "Name[gu]": "ક્રિયા પટ્ટી",
        "Name[he]": "סרגל פעילויות",
        "Name[hi]": "गतिविधि पट्टी",
        "Name[hne]": "सक्रियता पट्टी",
        "Name[hr]": "Traka aktivnosti",
        "Name[hsb]": "Pas aktiwitow",
        "Name[hu]": "Aktivitásjelző",
        "Name[ia]": "Barra de activitate",
        "Name[id]": "Bilah Aktivitas",
        "Name[is]": "Athafnasvæðastika",
        "Name[it]": "Barra delle attività",
        "Name[ja]": "アクティビティバー",
        "Name[ka]": "აქტივობების ზოლი",
        "Name[kk]": "Белсенділік панелі",
        "Name[km]": "របារ​សកម្មភាព",
        "Name[kn]": "ಚಟುವಟಿಕೆ ಪಟ್ಟಿ",
        "Name[ko]": "활동 표시줄",
        "Name[ku]": "Darika Çalakiyan",
        "Name[lt]": "Veiklų juosta",
        "Name[lv]": "Aktivitāšu josla",
        "Name[mk]": "Лента за активности",
        "Name[ml]": "ആക്ടിവിറ്റി ബാര്‍",
        "Name[mr]": "कार्यपध्दती पट्टी",
        "Name[nb]": "Aktivitetsstolpe",
        "Name[nds]": "Aktivitetenbalken",
        "Name[nl]": "Activiteitenbalk",
        "Name[nn]": "Aktivitets­linje",
        "Name[pa]": "ਸਰਗਰਮੀ ਪੱਟੀ",
        "Name[pl]": "Pasek aktywności",
        "Name[pt]": "Barra de Actividades",
        "Name[pt_BR]": "Barra de atividades",
        "Name[ro]": "Bară de activitate",
        "Name[ru]": "Панель комнат",
        "Name[si]": "ක්‍රියා තීරුව",
        "Name[sk]": "Panel aktivít",
        "Name[sl]": "Pas z dejavnostmi",
        "Name[sr@ijekavian]": "трака активности",
        "Name[sr@ijekavianlatin]": "traka aktivnosti",
        "Name[sr@latin]": "traka aktivnosti",
        "Name[sr]": "трака активности",
        "Name[sv]": "Aktivitetsrad",
        "Name[ta]": "செயல்பாடு பட்டை",
        "Name[te]": "క్రియాశీలత పట్టీ",
        "Name[tg]": "Навори фаъолият",
        "Name[th]": "แถบกิจกรรม",
        "Name[tr]": "Etkinlik Çubuğu",
        "Name[ug]": "پائالىيەت بالدىقى",
        "Name[uk]": "Панель дій",
        "Name[vi]": "Thanh Hoạt động",
        "Name[wa]": "Bår d' activité",
        "Name[x-test]": "xxActivity Barxx",
        "Name[zh_CN]": "活动栏",
        "Name[zh_TW]": "活動列",
        "ServiceTypes": [
            "Plasma/Applet"
        ],
        "Version": "1.0",
        "Website": "https://www.kde.org/plasma-desktop"
    },
    "X-Plasma-API": "declarativeappletscript",
    "X-Plasma-MainScript": "ui/main.qml",
    "X-Plasma-Provides": [
        "org.kde.plasma.activities"
    ]
}
